// Jest Snapshot v1, https://goo.gl/fbAQLP

exports[`Lobby renders properly 1`] = `"<div class=\\"lobby\\"><app-nav-stub></app-nav-stub> <app-user-stub user=\\"[object Object]\\"></app-user-stub> <app-accordion-stub></app-accordion-stub></div>"`;
