<svg width="12" height="8" viewBox="0 0 12 8" fill="none" xmlns="http://www.w3.org/2000/svg">
<path d="M10.1092 7.74902L11.9382 5.92002L6.09463 0.0764761L0.250944 5.92016L2.08135 7.74893L6.09467 3.73452L10.1092 7.74902Z" fill="#1B1B1B"/>
</svg>
